Assignment
…
The following dataset present the top words mentioned in various news

usenet_words <- cleaned_text %>%
  unnest_tokens(word, text) %>%
  filter(str_detect(word, "[a-z']$"),
         !word %in% stop_words$word)
usenet_words %>%
  count(word, sort = TRUE)

# A tibble: 5,831 x 2
   word           n
   <chr>      <int>
 1 kronos      1939
 2 gastech     1426
 3 abila       1006
 4 source       908
 5 government   894
 6 published    886
 7 title        857
 8 pok          710
 9 police       609
10 location     565
# ... with 5,821 more rows

word cloud demonstration

usenet_words %>%
  count(word, sort = TRUE)

# A tibble: 5,831 x 2
   word           n
   <chr>      <int>
 1 kronos      1939
 2 gastech     1426
 3 abila       1006
 4 source       908
 5 government   894
 6 published    886
 7 title        857
 8 pok          710
 9 police       609
10 location     565
# ... with 5,821 more rows
…
